input geometriepoint;
input constantes;
beginfig(1);
  z10=u*(1,1);label.llft(btex $H$ etex,z10);affixe.H(z10);
  z11=u*(4,1);label.lrt(btex $R$ etex,z11);affixe.R(z11);
  z12=u*(1,5);label.top(btex $J$ etex,z12);affixe.J(z12);
  draw z10--z11--z12--cycle;
  draw codeperp(J,H,R,5);
endfig;
end
