input courbescp13
beginfig(1);
  cadre((0,0),(10,10));
  draw grille(0.5) withcolor orange;
  unites(0.5,0.5);
  origine((5,5));
  draw axes;
  dotlabel.bot(btex $I$ etex,placepoint(3,0));
  dotlabel.lft(btex $J$ etex,placepoint(0,1));
  dotlabel.urt(btex $A$ etex,placepoint(-3,5));
endfig;
beginfig(2);
  cadre((0,0),(10,10));
  draw grille(0.5) withcolor orange;
  unites(0.5,0.5);
  origine((5,5));
  draw axes;
  draw courbe1(-15,15,2,7*x/9);
  dotlabel.bot(btex $I$ etex,placepoint(3,0));
  dotlabel.lft(btex $J$ etex,placepoint(0,1));
  dotlabel.urt(btex $A$ etex,placepoint(-3,5));
  dotlabel.ulft(btex  etex,placepoint(9,7));
endfig;
end