prologues:=2;

input courbescp13;

beginfig(1);
  cadre((0,0),(10,7));  
  draw grille(0.5) withcolor gris;
  origine((5,1));
  unites(2,2);
  graduationx(btex 1 etex,1);
  graduationy(btex 1 etex,1);
  draw axes;
  draw courbe1(-5,5,100,(x**3)+1.5);
endfig;
end
