prologues:=2;

verbatimtex
  %&latex
  \documentclass[]{article}
  \usepackage{fourier}
  \begin{document}
  etex

  input courbescp13;

beginfig(1);
  cadre((0,0),(7.5,7));
  draw grille(0.2) withcolor gris;
  draw grille(1) withcolor gris withpen pencircle scaled 1bp;
  origine((1,1));
  unites(1,0.1);
  graduationy(btex 5 etex,10);
  graduationy(btex 10 etex,20);
  graduationy(btex 15 etex,30);
  graduationy(btex 20 etex,40);
  graduationy(btex 25 etex,50);
  graduantx.bot;
  draw axes;
  legendex(btex $x$ etex);
  %draw courbe3(-5,6,100,(x*x));
  endfig;
  
  end
