prologues:=2;

input courbescp13;

beginfig(1);
  cadre((0,0),(10,9));  
  draw grille(0.5) withcolor gris;
  origine((5,3));
  unites(1,1);
  graduationx(btex 1 etex,1);
  graduationy(btex 1 etex,1);
  draw axes;
  draw courbe1(-5,5,100,0.25*(x**2)-1);
endfig;
end
