input mp-scratch3;

Scratchversion:=3;
print:=true;

l=1;

%for l=1 upto 26 :
  beginfig(l);
    %alea
    a:=4+ceiling(uniformdeviate(5));
    b:=1+ceiling(uniformdeviate(5));
    c:=a-3;
    d:=7+b;
    e:=1+ceiling(uniformdeviate(5));
    f:=c;
    g:=7+b+e*c;
    %Corps
    draw Commentaires("\textbf{Programme A}");
    draw Drapeau;
    draw Demander("Quel est le nombre choisi ?");
    draw MettreVar("Départ",OvalCap("réponse"));
    draw MettreVar("Etape1",OvalOp(OvalNb(decimal(a)),"$\bm{\times}$",OvalVar("Depart")));
    draw MettreVar("Etape2",OvalOp(OvalVar("Etape1"),"$\bm{+}$",OvalNb(decimal(b))));
    draw DireT("Le résultat est","2");
    draw DireT(OvalVar("Etape2"),"2");
    Deplacera(10cm,0);
    draw Commentaires("\textbf{Programme B}");
    draw Drapeau;
    draw Demander("Quel est le nombre choisi ?");
    draw MettreVar("Départ",OvalCap("réponse"));
    draw MettreVar("Etape1",OvalOp(OvalVar("Depart"),"$\bm{-}$",OvalNb(decimal(e))));
    draw MettreVar("Etape2",OvalOp(OvalVar("Etape1"),"$\bm{\times}$",OvalNb(decimal(f))));
    draw MettreVar("Etape3",OvalOp(OvalVar("Etape2"),"$\bm{+}$",OvalNb(decimal(g))));
    draw DireT("Le résultat est","2");
    draw DireT(OvalVar("Etape3"),"2");
    Deplacera(0,0);
  endfig;
%endfor;

end
