input mp-scratch3;

Scratchversion:=3;
print:=true;
symbole:=true;

beginfig(1);
  draw NouveauBloc("Motif");
  draw Repeter("4");
  draw Avancer("40");
  draw Tournerg("90");
  draw FinBlocRepeter;
  _coinprec:=(8cm,0cm);
  draw Drapeau;
  draw Effacer;
  draw PoserStylo;
  draw MettreVar("nombre","10");
  draw Repeter("3");
  picture BB[];
  BB1=OvalOp(OvalNb("40"),"$\bm{+}$",OvalVar("nombre"));
  draw MettreVar("nombre",BB1);
  draw Avancer(OvalVar("nombre"));
  draw Bloc("Motif");
  draw FinBlocRepeter;
  draw ReleverStylo;
endfig;

beginfig(2);
  _coinprec:=(0,0);
  draw NouveauBloc("Motif");
  draw Repeter("4");
  draw Avancer("40");
  draw Tournerg("90");
  draw FinBlocRepeter;
  _coinprec:=(8cm,0cm);
  draw Drapeau;
  draw Effacer;
  draw PoserStylo;
  draw MettreVar("nombre","10");
  draw Repeter("3");
  picture BB[];
  BB1=OvalOp(OvalNb("40"),"$\bm{+}$",OvalVar("nombre"));
  draw Bloc("Motif");
  draw MettreVar("nombre",BB1);
  draw Avancer(OvalVar("nombre"));
  draw FinBlocRepeter;
  draw ReleverStylo;
endfig;

end
