prologues:=3;

verbatimtex
  %&latex
  \documentclass[12pt]{article}
  \usepackage[utf8]{inputenc}
  \usepackage{fourier}
  \begin{document}
  etex

input courbescp13;
input LATEX;

beginfig(1);
  cadre((0,0),(11,7));
  draw grille(0.5) withcolor 0.75white;
  origine((1,0.5));
  unites(0.2,0.01);
  draw Axes;
  dotlabel.lrt(LATEX(""&decimal(0)&""),placepoint(0,0));
  for k=1 upto 8:
    dotlabel.bot(LATEX(""&decimal(k*5)&""),placepoint(5*k,0));
  endfor;
  for k=1 upto 6:
    dotlabel.lft(LATEX(""&decimal(k*100)&""),placepoint(0,100*k));
  endfor;
  draw courbe1(0,50,2,(500/35)*x);
  Legendex.ulft(btex Quantité d'essence (L) etex);
  legendey(btex Distance parcourue (km) etex);
endfig;
end
