input constantes;
input geometriepoint;
input outilspoint;
beginfig(1);
  path cadre;
  cadre=(0,0)--(6u,0)--(6u,6u)--(0,6u)--cycle;
  draw cadre;
  affixe.A(u*(1,1))so;
  affixe.B(u*(5,0.5))se;
  draw droite(A,B,1.1);
  affixe.I(u*(4,4.5))ne;
  croix(A);croix(B);croix(I);
  picture imagedepart;
  imagedepart=currentpicture;
endfig;
beginfig(2);
  affixe.A(u*(1,1))so;
  affixe.B(u*(5,0.5))se;
  affixe.I(u*(4,4.5))ne;
  affixe.L(1/5[z.A,z.B]);
  draw imagedepart;
  draw equerre(A,B,L,1,1)noir;
endfig;
beginfig(3);
  affixe.A(u*(1,1))so;
  affixe.B(u*(5,0.5))se;
  affixe.I(u*(4,4.5))ne;
  affixe.L(1/5[z.A,z.B]);
  affixe.M(projet(I,A,B));
  draw equerre(A,B,M,1,1)noir;
  drawarrow z.L--z.M withpen pencircle scaled 2bp;
  draw imagedepart;
endfig;
beginfig(4);
  affixe.A(u*(1,1));
  affixe.B(u*(5,0.5));
  affixe.I(u*(4,4.5));
  affixe.L(1/5[z.A,z.B]);
  affixe.M(projet(I,A,B));
  draw crayon(M,I,1/3[z.M,z.I],1);
  affixe.A(u*(1,1))so;
  affixe.B(u*(5,0.5))se;
  affixe.I(u*(4,4.5))ne;
  affixe.L(1/5[z.A,z.B]);
  affixe.M(projet(I,A,B));
  draw equerre(A,B,M,1,1)noir;
  draw imagedepart;
  draw droite(I,M,1.15) withpen pencircle scaled 2bp;
endfig;
end
  